{
  "content": [
    {
      "_id": "e63f234e-deca-42f3-b8e0-872139192780",
      "championId": "KogMaw",
      "item1": "223006",
      "item2": "223124",
      "item3": "223072",
      "item4": "223139",
      "item5": "223302",
      "item6": "223085",
      "position": "Bottom",
      "runes": {
        "keyStone1Id": "8000",
        "runes1": ["8008", "9111", "9103", "8014"],
        "keyStone2Id": "8100",
        "runes2": ["8139", "8135"],
        "statShards": ["AttackSpeed", "Adaptive", "HP"]
      },
      "patch": null,
      "summoner1Name": "Haste",
      "summoner2Name": "Flash",
      "username": "test500",
      "title": "kogmaw 1v9 build",
      "description": "ez game",
      "timestamp": 1736875326,
      "keystone1": null,
      "runes1": null,
      "keystone2": null,
      "runes2": null,
      "likesCount": 1,
      "dislikesCount": 2,
      "canReact": false,
      "reaction": false,
      "saved": false
    },
    {
      "_id": "51685f14-d856-4d4c-9ed4-8bea6df1c3f5",
      "championId": "Belveth",
      "item1": "223006",
      "item2": "446691",
      "item3": "226692",
      "item4": "223072",
      "item5": "223748",
      "item6": "223143",
      "position": "Jungle",
      "runes": {
        "keyStone1Id": "8000",
        "runes1": ["8010", "9111", "9103", "8014"],
        "keyStone2Id": "8100",
        "runes2": ["8139", "8135"],
        "statShards": ["Adaptive", "Adaptive", "HP"]
      },
      "patch": null,
      "summoner1Name": "Smite",
      "summoner2Name": "Flash",
      "username": "test500",
      "title": "Bel veth jungle",
      "description": "my best game ever",
      "timestamp": 1736874223,
      "keystone1": null,
      "runes1": null,
      "keystone2": null,
      "runes2": null,
      "likesCount": 0,
      "dislikesCount": 0,
      "canReact": false,
      "reaction": false,
      "saved": false
    },
    {
      "_id": "d7814b32-46ed-4130-a34c-56a08dfbe1f8",
      "championId": "Tryndamere",
      "item1": "223190",
      "item2": "226695",
      "item3": "223185",
      "item4": "226698",
      "item5": "226697",
      "item6": "226692",
      "position": "Bottom",
      "runes": {
        "keyStone1Id": "8400",
        "runes1": ["8439", "8401", "8473", "8451"],
        "keyStone2Id": "8300",
        "runes2": ["8347", "8348"],
        "statShards": ["Adaptive", "Bonus Health", "Base Health"]
      },
      "patch": null,
      "summoner1Name": null,
      "summoner2Name": null,
      "username": "test2000",
      "title": "Tryndameere Tryndameere Tryndameere",
      "description": "formValues.description ormValues.description ormValues.description ormValues.description",
      "timestamp": 1736367799,
      "keystone1": null,
      "runes1": null,
      "keystone2": null,
      "runes2": null,
      "likesCount": 2,
      "dislikesCount": 2,
      "canReact": false,
      "reaction": false,
      "saved": false
    },
    {
      "_id": "80bbf81d-23f0-4498-851e-15d8d3cc91e1",
      "championId": "Tryndamere",
      "item1": "223190",
      "item2": "226695",
      "item3": "223185",
      "item4": "226698",
      "item5": "226697",
      "item6": "226692",
      "position": "Bottom",
      "runes": {
        "keyStone1Id": "8400",
        "runes1": ["8439", "8401", "8473", "8451"],
        "keyStone2Id": "8300",
        "runes2": ["8347", "8348"],
        "statShards": ["Adaptive", "Bonus Health", "Base Health"]
      },
      "patch": null,
      "summoner1Name": null,
      "summoner2Name": null,
      "username": "test2000",
      "title": "Tryndameere Tryndameere Tryndameere",
      "description": "formValues.description ormValues.description ormValues.description ormValues.description",
      "timestamp": 1736367798,
      "keystone1": null,
      "runes1": null,
      "keystone2": null,
      "runes2": null,
      "likesCount": 1,
      "dislikesCount": 1,
      "canReact": false,
      "reaction": false,
      "saved": false
    },
    {
      "_id": "b55da58b-0fb7-4550-b77a-55690f26aa6a",
      "championId": "Tryndamere",
      "item1": "223190",
      "item2": "226695",
      "item3": "223185",
      "item4": "226698",
      "item5": "226697",
      "item6": "226692",
      "position": "Bottom",
      "runes": {
        "keyStone1Id": "8400",
        "runes1": ["8439", "8401", "8473", "8451"],
        "keyStone2Id": "8300",
        "runes2": ["8347", "8348"],
        "statShards": ["Adaptive", "Bonus Health", "Base Health"]
      },
      "patch": null,
      "summoner1Name": null,
      "summoner2Name": null,
      "username": "test2000",
      "title": "Tryndameere Tryndameere Tryndameere",
      "description": "formValues.description ormValues.description ormValues.description ormValues.description",
      "timestamp": 1736367794,
      "keystone1": null,
      "runes1": null,
      "keystone2": null,
      "runes2": null,
      "likesCount": 1,
      "dislikesCount": 0,
      "canReact": false,
      "reaction": false,
      "saved": false
    }
  ],
  "page": {
    "size": 5,
    "number": 0,
    "totalElements": 14,
    "totalPages": 3
  }
}
